{
  "service": "QuickBooks",
  "name": "newInvoice",
  "text": "New Invoice",
  "description": "Create a new invoice in QuickBooks",
  "inputs": [
    {
      "name": "customer_name",
      "type": "select",
      "label": "Customer",
      "required": true,
      "placeholder": "Select",
      "options": [
        "<URL endpoint>"
      ]
    },
    {
      "name": "invoice_date",
      "type": "date",
      "label": "Invoice Date",
      "required": true,
      "options": {
      },
      "default": "current"
    },
    {
      "name": "due_date",
      "type": "date",
      "label": "Due Date",
      "required": true,
      "options": {
      },
      "default": "current"
    },
    {
      "name": "taxcode_name",
      "label": "Tax Code",
      "type": "select",
      "required": false,
      "options": [
        "<URL endpoint>"
      ],
      "default": ""
    },
    {
      "name": "cb_send_invoice",
      "type": "checkbox",
      "option": "Send email to customer",
      "default": true
    },
    {
      "name": "cb_weekly_reminders",
      "type": "checkbox",
      "option": "Send weekly reminders",
      "default": false
    },
    {
      "ATTACHMENT": "Not (yet) specified in form_generation.md"
    },
    {
      "line": [
        {
          "name": "line_item",
          "label": "Line Item",
          "type": "select",
          "required": false,
          "options": [
            "<URL endpoint>"
          ],
          "default": ""
        },
        {
          "name": "description",
          "type": "text",
          "label": "Description",
          "required": true,
          "placeholder": "Description",
          "validation": {
            "pattern": {
              "value": "^[a-zA-Z ,.'-]+$",
              "text": "The only non-alphabetical characters allowed are ' ', ',', '-' and '"
            }
          }
        },
        {
          "name": "unit_price",
          "type": "text.number",
          "required": true,
          "placeholder": "Unit price in $",
          "validation": {
            "min": 0
          }
        },
        {
          "name": "quantity",
          "type": "text.number",
          "required": true,
          "placeholder": "Number of units",
          "validation": {
            "min": 0
          }
        },
        {
          "name": "item_taxed",
          "type": "checkbox",
          "option": "Item taxable",
          "default": true
        }
      ]
    }
  ]
}
