{
  "service": "Xero",
  "name": "newbill",
  "text": "New Bill",
  "description": "Create a new bill in Xero",
  "inputs": [
    {
      "name": "vendor",
      "type": "select",
      "label": "Vendor",
      "required": true,
      "placeholder": "Select",
      "options": [
        "<URL endpoint>"
      ]
    },
    {
      "name": "bill_date",
      "type": "date",
      "label": "Bill Date",
      "required": true,
      "options": {
      },
      "default": "current"
    },
    {
      "name": "due_date",
      "type": "date",
      "label": "Due Date",
      "required": true,
      "options": {
      },
      "default": "current"
    },
    {
      "name": "tax_inclusive",
      "label": "Tax",
      "type": "select",
      "required": false,
      "options": [
        "Inclusive",
        "Exclusive"
      ],
      "default": "Exclusive"
    },
    {
      "name": "tax_rate",
      "type": "text.number",
      "required": false,
      "placeholder": "Taxes in %",
      "validation": {
        "min": 0,
        "max": 100
      },
      "default": ""
    },
    {
      "ATTACHMENT": "Not (yet) specified in form_generation.md"
    },
    {
      "line": [
        {
          "name": "line_item_code",
          "label": "Line Item",
          "type": "select",
          "required": false,
          "options": [
            "<URL endpoint>"
          ],
          "default": ""
        },
        {
          "name": "bill_account_name",
          "label": "Expense Account",
          "type": "select",
          "required": true,
          "options": [
            "<URL endpoint>"
          ]
        },
        {
          "name": "description",
          "type": "text",
          "label": "Description",
          "required": true,
          "placeholder": "Description",
          "validation": {
            "pattern": {
              "value": "^[a-zA-Z ,.'-]+$",
              "text": "The only non-alphabetical characters allowed are ' ', ',', '-' and '"
            }
          }
        },
        {
          "name": "unit_price",
          "type": "text.number",
          "required": true,
          "placeholder": "Unit price in $",
          "validation": {
            "min": 0
          }
        },
        {
          "name": "quantity",
          "type": "text.number",
          "required": true,
          "placeholder": "Number of units",
          "validation": {
            "min": 0
          }
        },
        {
          "name": "item_taxed",
          "type": "checkbox",
          "option": "Item taxable",
          "default": true
        }
      ]
    }
  ]
}